{
    "_links": {
        "self": {
            "href": "http:\/\/default\/profile-list\/taras-tsiuper?_format=hal_json"
        },
        "type": {
            "href": "http:\/\/drupal.org\/rest\/type\/node\/profile"
        },
        "http:\/\/drupal.org\/rest\/relation\/node\/profile\/uid": [
            {
                "href": "http:\/\/default\/user\/1?_format=hal_json"
            }
        ],
        "http:\/\/drupal.org\/rest\/relation\/node\/profile\/revision_uid": [
            {
                "href": "http:\/\/default\/user\/1?_format=hal_json"
            }
        ],
        "http:\/\/drupal.org\/rest\/relation\/node\/profile\/field_profile_department": [
            {
                "href": "http:\/\/default\/node\/108?_format=hal_json"
            },
            {
                "href": "http:\/\/default\/node\/110?_format=hal_json"
            }
        ],
        "http:\/\/drupal.org\/rest\/relation\/node\/profile\/field_profile_image": [
            {
                "href": "http:\/\/default\/sites\/default\/files\/2017-05\/Picture_7_1.png"
            }
        ]
    },
    "nid": [
        {
            "value": 51
        }
    ],
    "uuid": [
        {
            "value": "3ceb8009-22b3-4058-a7ed-9689805570de"
        }
    ],
    "vid": [
        {
            "value": 51
        }
    ],
    "type": [
        {
            "target_id": "profile"
        }
    ],
    "status": [
        {
            "value": true
        }
    ],
    "title": [
        {
            "value": "Taras Tsiuper"
        }
    ],
    "_embedded": {
        "http:\/\/drupal.org\/rest\/relation\/node\/profile\/uid": [
            {
                "_links": {
                    "self": {
                        "href": "http:\/\/default\/user\/1?_format=hal_json"
                    },
                    "type": {
                        "href": "http:\/\/drupal.org\/rest\/type\/user\/user"
                    }
                },
                "uuid": [
                    {
                        "value": "5aef157e-2748-4e6d-8ee5-a7320424a21e"
                    }
                ]
            }
        ],
        "http:\/\/drupal.org\/rest\/relation\/node\/profile\/revision_uid": [
            {
                "_links": {
                    "self": {
                        "href": "http:\/\/default\/user\/1?_format=hal_json"
                    },
                    "type": {
                        "href": "http:\/\/drupal.org\/rest\/type\/user\/user"
                    }
                },
                "uuid": [
                    {
                        "value": "5aef157e-2748-4e6d-8ee5-a7320424a21e"
                    }
                ]
            }
        ],
        "http:\/\/drupal.org\/rest\/relation\/node\/profile\/field_profile_department": [
            {
                "_links": {
                    "self": {
                        "href": "http:\/\/default\/node\/108?_format=hal_json"
                    },
                    "type": {
                        "href": "http:\/\/drupal.org\/rest\/type\/node\/department"
                    }
                },
                "uuid": [
                    {
                        "value": "607ab34f-48a3-463b-b184-07197b4572e3"
                    }
                ]
            },
            {
                "_links": {
                    "self": {
                        "href": "http:\/\/default\/node\/110?_format=hal_json"
                    },
                    "type": {
                        "href": "http:\/\/drupal.org\/rest\/type\/node\/department"
                    }
                },
                "uuid": [
                    {
                        "value": "6446420c-f6d1-44e3-a73e-e76131b3c93a"
                    }
                ]
            }
        ],
        "http:\/\/drupal.org\/rest\/relation\/node\/profile\/field_profile_image": [
            {
                "_links": {
                    "self": {
                        "href": "http:\/\/default\/sites\/default\/files\/2017-05\/Picture_7_1.png"
                    },
                    "type": {
                        "href": "http:\/\/drupal.org\/rest\/type\/file\/file"
                    }
                },
                "uuid": [
                    {
                        "value": "ff783ffd-56e6-4191-af96-c83fb7dad96a"
                    }
                ],
                "alt": "Taras Tsiuper",
                "title": "",
                "width": "360",
                "height": "538"
            }
        ]
    },
    "created": [
        {
            "value": 1493745582
        }
    ],
    "changed": [
        {
            "value": 1496174866
        }
    ],
    "promote": [
        {
            "value": false
        }
    ],
    "sticky": [
        {
            "value": false
        }
    ],
    "revision_translation_affected": [
        {
            "value": true
        }
    ],
    "path": [
        {
            "alias": "\/profile-list\/taras-tsiuper",
            "pid": 8
        }
    ],
    "body": [
        {
            "value": "<p>Taras was interested in computer science since childhood, so his master\u2019s degree on the field wasn't a big surprise. His biggest passion is making slow things fast and solving of complicated tasks.<\/p>\r\n\r\n<p>Taras started career as intern at the same day he graduated and got diploma. So far he had already tried the team lead role and used to rule filial of the company. After all Taras decided development, with its magic of numbers is more interesting. Now he is senior Drupal developer, with interest on other related technologies, like Symfony.<\/p>\r\n\r\n<p>After still days behind computer, Taras prefers to have an active weekend. On his last annual vacation he had pedalled along Ukrainian south coast, which was 800 km.<\/p>\r\n",
            "format": "rich_text",
            "summary": ""
        }
    ],
    "field_profile_courses": [
        {
            "value": "English 112"
        }
    ],
    "field_profile_education": [
        {
            "value": "MA, Contemporary Writing, University of Illinois, Urbana, 1997"
        }
    ],
    "field_profile_email": [
        {
            "value": "taras@imagexmedia.com"
        }
    ],
    "field_profile_job_title": [
        {
            "value": "Professor of Development"
        }
    ],
    "field_profile_name": [
        {
            "title": null,
            "given": "Taras",
            "middle": null,
            "family": "Tsiuper",
            "generational": null,
            "credentials": null
        }
    ],
    "field_profile_office": [
        {
            "value": "303 Secondary St."
        }
    ],
    "field_profile_phone": [
        {
            "value": "967996221"
        }
    ],
    "field_profile_publications": [
        {
            "value": "<h3>Pellentesque ipsum purus, pretium ut neque quis \u2013 May 4 2016<\/h3>\r\n\r\n<p>by Anthony Smith (Author), Jeannie Lin RN MN NN (Editor)<\/p>\r\n",
            "format": "rich_text"
        },
        {
            "value": "<h3>Sed porta nunc eget eleifend suscipit&nbsp;\u2013 Oct 1 1984<\/h3>\r\n\r\n<p>by Louis Smith&nbsp;(Author)<\/p>\r\n",
            "format": "rich_text"
        },
        {
            "value": "<h3>Sed porta nunc eget eleifend suscipit&nbsp;\u2013 Apr 8 2005<\/h3>\r\n\r\n<p>by Cornell Smith&nbsp;(Author)<\/p>\r\n",
            "format": "rich_text"
        }
    ],
    "field_profile_research_projects": [
        {
            "value": "<h3>Sed porta nunc eget eleifend suscipit<\/h3>\r\n\r\n<p><strong>Principal Investigator:<\/strong> James Souza<\/p>\r\n\r\n<p><strong>Supervisor:<\/strong> Linda Coors, MD, professor of kinetics.<\/p>\r\n",
            "format": "rich_text"
        },
        {
            "value": "<h3>A trial of levocarnitine for muscle spasms.<\/h3>\r\n\r\n<p><strong>Principal Investigator:&nbsp;<\/strong>John Cannon<\/p>\r\n\r\n<p><strong>Supervisor:<\/strong>&nbsp;Ted Chang, MD, associate professor of dermatology.<\/p>\r\n",
            "format": "rich_text"
        },
        {
            "value": "<h3>Responsible Research&nbsp;in Practice<\/h3>\r\n\r\n<p>Vestibulum pharetra ante non nisi molestie, ut tempus quam gravida. Donec finibus magna nec ante efficitur ultricies.<\/p>\r\n\r\n<p><strong>Principal Investigator:<\/strong> D. Smith<\/p>\r\n",
            "format": "rich_text"
        }
    ],
    "field_profile_students": [
        {
            "value": "<ul>\r\n\t<li>Les Cordell<\/li>\r\n\t<li>Yuriy Gerasimov<\/li>\r\n\t<li>Gavin Graham<\/li>\r\n\t<li>Bryan Heredia<\/li>\r\n\t<li>Erin Joyce<\/li>\r\n\t<li>Travis Ketler<\/li>\r\n<\/ul>\r\n",
            "format": "rich_text"
        }
    ],
    "field_profile_type": [
        {
            "value": "faculty"
        }
    ]
}
